%YAML 1.1
%TAG !u! tag:unity3d.com,2011:
--- !u!1 &7187126526328251522
GameObject:
  m_ObjectHideFlags: 0
  m_CorrespondingSourceObject: {fileID: 0}
  m_PrefabInstance: {fileID: 0}
  m_PrefabAsset: {fileID: 0}
  serializedVersion: 6
  m_Component:
  - component: {fileID: 7187126526328251521}
  - component: {fileID: 7187126526328251520}
  m_Layer: 0
  m_Name: ColorTheme
  m_TagString: Untagged
  m_Icon: {fileID: 0}
  m_NavMeshLayer: 0
  m_StaticEditorFlags: 0
  m_IsActive: 1
--- !u!4 &7187126526328251521
Transform:
  m_ObjectHideFlags: 0
  m_CorrespondingSourceObject: {fileID: 0}
  m_PrefabInstance: {fileID: 0}
  m_PrefabAsset: {fileID: 0}
  m_GameObject: {fileID: 7187126526328251522}
  m_LocalRotation: {x: 0, y: 0, z: 0, w: 1}
  m_LocalPosition: {x: 245, y: 490, z: 0}
  m_LocalScale: {x: 1, y: 1, z: 1}
  m_Children: []
  m_Father: {fileID: 0}
  m_RootOrder: 0
  m_LocalEulerAnglesHint: {x: 0, y: 0, z: 0}
--- !u!114 &7187126526328251520
MonoBehaviour:
  m_ObjectHideFlags: 0
  m_CorrespondingSourceObject: {fileID: 0}
  m_PrefabInstance: {fileID: 0}
  m_PrefabAsset: {fileID: 0}
  m_GameObject: {fileID: 7187126526328251522}
  m_Enabled: 1
  m_EditorHideFlags: 0
  m_Script: {fileID: 11500000, guid: 3f5ae52d2da41d54e8e97217398a8a9a, type: 3}
  m_Name: 
  m_EditorClassIdentifier: 
  loader: {fileID: 0}
  themes:
  - theme: 0
    colors:
    - {r: 0.98823535, g: 0.7372549, b: 0.65882355, a: 1}
  - theme: 1
    colors:
    - {r: 0.36078432, g: 0.7372549, b: 0.5764706, a: 1}
  - theme: 2
    colors:
    - {r: 0.4745098, g: 0.6509804, b: 0.8784314, a: 1}
  - theme: 3
    colors:
    - {r: 0.98823535, g: 0.77647066, b: 0.20000002, a: 1}
