%YAML 1.1
%TAG !u! tag:unity3d.com,2011:
--- !u!1001 &5474945581070415150
PrefabInstance:
  m_ObjectHideFlags: 0
  serializedVersion: 2
  m_Modification:
    m_TransformParent: {fileID: 0}
    m_Modifications:
    - target: {fileID: 3237055425182167165, guid: 29287b14811bba840bbacb82c970ec4e,
        type: 3}
      propertyPath: m_Name
      value: Stand BigHigh
      objectReference: {fileID: 0}
    - target: {fileID: 2066466367461468912, guid: 29287b14811bba840bbacb82c970ec4e,
        type: 3}
      propertyPath: m_LocalPosition.x
      value: 0
      objectReference: {fileID: 0}
    - target: {fileID: 2066466367461468912, guid: 29287b14811bba840bbacb82c970ec4e,
        type: 3}
      propertyPath: m_LocalPosition.y
      value: -0.359
      objectReference: {fileID: 0}
    - target: {fileID: 2066466367461468912, guid: 29287b14811bba840bbacb82c970ec4e,
        type: 3}
      propertyPath: m_LocalPosition.z
      value: 0
      objectReference: {fileID: 0}
    - target: {fileID: 2066466367461468912, guid: 29287b14811bba840bbacb82c970ec4e,
        type: 3}
      propertyPath: m_LocalRotation.x
      value: -0
      objectReference: {fileID: 0}
    - target: {fileID: 2066466367461468912, guid: 29287b14811bba840bbacb82c970ec4e,
        type: 3}
      propertyPath: m_LocalRotation.y
      value: -0
      objectReference: {fileID: 0}
    - target: {fileID: 2066466367461468912, guid: 29287b14811bba840bbacb82c970ec4e,
        type: 3}
      propertyPath: m_LocalRotation.z
      value: -0
      objectReference: {fileID: 0}
    - target: {fileID: 2066466367461468912, guid: 29287b14811bba840bbacb82c970ec4e,
        type: 3}
      propertyPath: m_LocalRotation.w
      value: 1
      objectReference: {fileID: 0}
    - target: {fileID: 2066466367461468912, guid: 29287b14811bba840bbacb82c970ec4e,
        type: 3}
      propertyPath: m_RootOrder
      value: 0
      objectReference: {fileID: 0}
    - target: {fileID: 2066466367461468912, guid: 29287b14811bba840bbacb82c970ec4e,
        type: 3}
      propertyPath: m_LocalEulerAnglesHint.x
      value: 0
      objectReference: {fileID: 0}
    - target: {fileID: 2066466367461468912, guid: 29287b14811bba840bbacb82c970ec4e,
        type: 3}
      propertyPath: m_LocalEulerAnglesHint.y
      value: 0
      objectReference: {fileID: 0}
    - target: {fileID: 2066466367461468912, guid: 29287b14811bba840bbacb82c970ec4e,
        type: 3}
      propertyPath: m_LocalEulerAnglesHint.z
      value: 0
      objectReference: {fileID: 0}
    - target: {fileID: 3216248354251843476, guid: 29287b14811bba840bbacb82c970ec4e,
        type: 3}
      propertyPath: m_LocalPosition.y
      value: -0.5285
      objectReference: {fileID: 0}
    - target: {fileID: 3216248354251843476, guid: 29287b14811bba840bbacb82c970ec4e,
        type: 3}
      propertyPath: m_LocalScale.y
      value: 0.50750995
      objectReference: {fileID: 0}
    - target: {fileID: 2000588877662428909, guid: 29287b14811bba840bbacb82c970ec4e,
        type: 3}
      propertyPath: m_LocalScale.x
      value: 1.4
      objectReference: {fileID: 0}
    - target: {fileID: 2000588877662428909, guid: 29287b14811bba840bbacb82c970ec4e,
        type: 3}
      propertyPath: m_LocalScale.z
      value: 1.4
      objectReference: {fileID: 0}
    m_RemovedComponents: []
  m_SourcePrefab: {fileID: 100100000, guid: 29287b14811bba840bbacb82c970ec4e, type: 3}
